{
  "page": 1,
  "start_date": "2016-12-21 12:30:43",
  "end_date": "2017-1-10 12:30:43",
  "total_pages": 2,
  "total_results": 10,
  "results": [
    {
      "id": 1,
      "title": "映画その1",
      "overview": "概要です",
      "posterPath": "",
      "releaseDate": "2016-3-9"
    },
    {
      "id": 2,
      "title": "映画その2",
      "overview": "2つ目の概要です",
      "posterPath": "/thumbnail/test",
      "releaseDate": "2016-1-21"
    }
  ]
}